{
  "root": {
    "identifiers": [
      "https://doi.org/10.5555/12345678"
    ],
    "properties": [
      {
        "values": {
          "title-long": [
            {
              "language": null,
              "value": "ARTICLE TITLE"
            }
          ],
          "abstract": [
            {
              "value": "<jats:p>Here is a simple abstract</jats:p>",
              "language": "en"
            },
            {
              "value": "<jats:p>Dies ist eine einfache Zusammenfassung, die nicht in JATS-Tags eingefasst ist.</jats:p>",
              "language": "de"
            }
          ],
          "published-print": [
            {
              "date-parts": [
                2008,
                8,
                14
              ],
              "date-time": "2008-08-14T00:00:00.000Z",
              "timestamp": 1218672000000,
              "source": "date-parts"
            }
          ],
          "published-online": [
            {
              "date-parts": [
                2008,
                8,
                13
              ],
              "date-time": "2008-08-13T00:00:00.000Z",
              "timestamp": 1218585600000,
              "source": "date-parts"
            }
          ],
          "type": "work",
          "subtype": "journal-article"
        }
      }
    ],
    "relationships": [
      {
        "relationship-type": "license",
        "object": {
          "identifiers": [],
          "properties": [
            {
              "values": {
                "type": "url",
                "value": "http://psychoceramicsproprietrylicenseV1.com"
              }
            }
          ],
          "relationships": []
        }
      },
      {
        "relationship-type": "author",
        "object": {
          "identifiers": [
            "https://orcid.org/0000-0002-1825-0097"
          ],
          "properties": [
            {
              "values": {
                "type": "person",
                "first-name": "Josiah",
                "last-name": "Carberry",
                "sequence": "first",
                "suffix": "Jr."
              }
            }
          ],
          "relationships": [
            {
              "relationship-type": "affiliation",
              "object": {
                "identifiers": [],
                "properties": [
                  {
                    "values": {
                      "type": "org",
                      "name": "AFFIL"
                    }
                  }
                ],
                "relationships": []
              }
            }
          ]
        }
      },
      {
        "relationship-type": "author",
        "object": {
          "identifiers": [],
          "properties": [
            {
              "values": {
                "type": "person",
                "first-name": "j",
                "last-name": "carberry",
                "sequence": "additional",
                "suffix": null
              }
            }
          ],
          "relationships": [
            {
              "relationship-type": "affiliation",
              "object": {
                "identifiers": [
                  "https://ror.org/052gg0110"
                ],
                "properties": [
                  {
                    "values": {
                      "type": "org",
                      "name": "University of Oxford"
                    }
                  }
                ],
                "relationships": []
              }
            }
          ]
        }
      },
      {
        "relationship-type": "resource-resolution",
        "object": {
          "identifiers": [],
          "properties": [
            {
              "values": {
                "type": "resolution",
                "subtype": "primary"
              }
            }
          ],
          "relationships": [
            {
              "relationship-type": "object",
              "object": {
                "identifiers": [
                  "https://sandbox.publicknowledgeproject.org/index.php/jpc/article/view/497"
                ],
                "properties": [
                  {
                    "values": {
                      "type": "web-resource"
                    }
                  }
                ],
                "relationships": []
              }
            }
          ]
        }
      },
      {
        "relationship-type": "ancestor",
        "object": {
          "identifiers": [
            "https://doi.org/10.5555/1234567890"
          ],
          "properties": [
            {
              "values": {
                "type": "work",
                "subtype": "journal",
                "title-long": [
                  {
                    "value": "JOURNAL FULL TITLE"
                  }
                ],
                "title-short": [
                  {
                    "value": "JOURNAL ABBREV TITLE"
                  }
                ]
              }
            }
          ],
          "relationships": [
            {
              "relationship-type": "issn",
              "object": {
                "identifiers": [
                  "https://id.crossref.org/issn/1111-2222"
                ],
                "properties": [
                  {
                    "values": {
                      "type": "id",
                      "subtype": "issn",
                      "kind": "print",
                      "original": "1111-2222"
                    }
                  }
                ],
                "relationships": []
              }
            },
            {
              "relationship-type": "issn",
              "object": {
                "identifiers": [
                  "https://id.crossref.org/issn/3333-4444"
                ],
                "properties": [
                  {
                    "values": {
                      "type": "id",
                      "subtype": "issn",
                      "kind": "electronic",
                      "original": "3333-4444"
                    }
                  }
                ],
                "relationships": []
              }
            },
            {
              "relationship-type": "resource-resolution",
              "object": {
                "identifiers": [],
                "properties": [
                  {
                    "values": {
                      "type": "resolution",
                      "subtype": "primary"
                    }
                  }
                ],
                "relationships": [
                  {
                    "relationship-type": "object",
                    "object": {
                      "identifiers": [
                        "https://sandbox.publicknowledgeproject.org/index.php/jpc/"
                      ],
                      "properties": [
                        {
                          "values": {
                            "type": "web-resource"
                          }
                        }
                      ],
                      "relationships": []
                    }
                  }
                ]
              }
            }
          ]
        }
      },
      {
        "relationship-type": "funder",
        "object": {
          "identifiers": [
            "https://doi.org/10.13039/100000001"
          ],
          "properties": [
            {
              "values": {
                "type": "org",
                "name": "National Science Foundation"
              }
            }
          ],
          "relationships": [
            {
              "relationship-type": "awarded",
              "object": {
                "identifiers": [
                  "CHE-1152342"
                ],
                "properties": [
                  {
                    "values": {
                      "type": "grant"
                    }
                  }
                ],
                "relationships": []
              }
            }
          ]
        }
      }
    ]
  }
}
