{
  "watch": [".yalc/@jsonforms/vue-vuetify/lib/jsonforms-vue-vuetify.esm.mjs", ".yalc/@pvale/vue-vuetify/lib/jsonforms-vue-vuetify.esm.mjs"],
  "exec": "vite dev",
  "ext": "js,json,ts,vue,ftl",
  "ignore": ["node_modules/**/node_modules"],
  "events": {
    "restart": "echo 'Restarting Vite due to changes...'"
  }
}
