// Vitest Snapshot v1, https://vitest.dev/guide/snapshot.html

exports[`ForgotYourPasswordLink > should work 1`] = `
"<div>
  <!-- Render an <a> tag for external links with all attributes bound from the parent and href set safely --><a class="text-uppercase text-decoration-none" href="https://authenticator.crossref.org/reset-password/" target="_blank" rel="noopener noreferrer">forgotten_your_password</a>
</div>"
`;
