{
  "type": "Group",
  "options": {
    "bare": false,
    "alignLeft": false
  },
  "elements": [
    {
      "type": "HorizontalLayout",
      "options": {
        "breakHorizontal": "md"
      },
      "elements": [
        {
          "type": "Control",
          "scope": "#/properties/doi"
        },
        {
          "type": "Control",
          "scope": "#/properties/resource"
        }
      ]
    }
  ]
}
